%YAML 1.1
%TAG !u! tag:unity3d.com,2011:
--- !u!114 &11400000
MonoBehaviour:
  m_ObjectHideFlags: 0
  m_CorrespondingSourceObject: {fileID: 0}
  m_PrefabInstance: {fileID: 0}
  m_PrefabAsset: {fileID: 0}
  m_GameObject: {fileID: 0}
  m_Enabled: 1
  m_EditorHideFlags: 0
  m_Script: {fileID: 11500000, guid: d31c4fe14de6ee447b710aca2dbfdc51, type: 3}
  m_Name: PlayerLevelConfig
  m_EditorClassIdentifier: 
  <MinHorizontalPlayerPosition>k__BackingField: -2.1
  <MaxHorizontalPlayerPosition>k__BackingField: 2.1
