%YAML 1.1
%TAG !u! tag:unity3d.com,2011:
--- !u!1045 &1
EditorBuildSettings:
  m_ObjectHideFlags: 0
  serializedVersion: 2
  m_Scenes:
  - enabled: 1
    path: Assets/Scenes/LoadingScene.unity
    guid: 95cea40dc4586be49b1a8b759bb1b3bd
  m_configObjects:
    com.unity.addressableassets: {fileID: 11400000, guid: 4be5af06151bf80408696627466637b1,
      type: 2}
